simulation/qsim/control.msim.vcd
$comment
	File created using the following command:
		vcd file control.msim.vcd -direction
$end
$date
	Wed Nov 27 16:31:35 2024
$end
$version
	ModelSim Version 10.1d
$end
$timescale
	1ps
$end
$scope module control2_vlg_vec_tst $end
$var reg 1 ! clk $end
$var reg 1 " GD $end
$var reg 1 # GI $end
$var reg 1 $ O0 $end
$var reg 1 % O1 $end
$var reg 1 & reset $end
$var reg 1 ' s $end
$var reg 1 ( tc1 $end
$var reg 1 ) tc2 $end
$var wire 1 * M0 $end
$var wire 1 + M1 $end
$var wire 1 , M2 $end
$var wire 1 - M3 $end
$var wire 1 . sampler $end
$scope module i1 $end
$var wire 1 / gnd $end
$var wire 1 0 vcc $end
$var wire 1 1 unknown $end
$var tri1 1 2 devclrn $end
$var tri1 1 3 devpor $end
$var tri1 1 4 devoe $end
$var wire 1 5 GI_prev~q $end
$var wire 1 6 GD_prev~q $end
$var wire 1 7 state~1_combout $end
$var wire 1 8 O0~input_o $end
$var wire 1 9 s~input_o $end
$var wire 1 : GD~input_o $end
$var wire 1 ; GI~input_o $end
$var wire 1 < GI_prev~feeder_combout $end
$var wire 1 = M3~output_o $end
$var wire 1 > M2~output_o $end
$var wire 1 ? M1~output_o $end
$var wire 1 @ M0~output_o $end
$var wire 1 A clk~input_o $end
$var wire 1 B clk~inputclkctrl_outclk $end
$var wire 1 C O1~input_o $end
$var wire 1 D tc1~input_o $end
$var wire 1 E tc2~input_o $end
$var wire 1 F state~0_combout $end
$var wire 1 G state~2_combout $end
$var wire 1 H reset~input_o $end
$var wire 1 I reset~inputclkctrl_outclk $end
$var wire 1 J state~q $end
$var wire 1 K M3_reg~0_combout $end
$var wire 1 L M3_reg~q $end
$var wire 1 M M2_reg~0_combout $end
$var wire 1 N M2_reg~q $end
$var wire 1 O M1_reg~0_combout $end
$var wire 1 P M1_reg~q $end
$var wire 1 Q M0_reg~0_combout $end
$var wire 1 R M0_reg~q $end
$upscope $end
$upscope $end
$enddefinitions $end
#0
$dumpvars
0!
0"
1#
1$
1%
1&
1'
0(
1)
0*
0+
0,
0-
x.
0/
10
x1
12
13
14
05
06
07
18
19
0:
1;
1<
0=
0>
0?
0@
0A
0B
1C
0D
1E
1F
1G
1H
1I
0J
0K
0L
0M
0N
0O
0P
0Q
0R
$end
#10000
0&
0H
0I
0.
#50000
1!
1A
1B
1.
1J
15
1K
0F
17
#100000
0!
0A
0B
0.
#150000
1!
1A
1B
1.
1L
1=
1-
#200000
0!
0A
0B
0.
#250000
1!
1A
1B
1.
#300000
0!
0A
0B
0.
#350000
1!
1A
1B
1.
#400000
0!
0A
0B
0.
#450000
1!
1A
1B
1.
#500000
0!
0A
0B
0.
#510000
0$
08
1.
1Q
#550000
1!
1A
1B
0.
1R
1@
1*
#600000
0!
0A
0B
1.
#650000
1!
1A
1B
0.
#700000
0!
0A
0B
1.
#750000
1!
1A
1B
0.
#800000
0!
0A
0B
1.
#850000
1!
1A
1B
0.
#900000
0!
0A
0B
1.
#910000
1&
1H
1I
0.
0J
0L
0R
0Q
0K
0G
1F
0=
0@
0-
0*
1G
#930000
0&
0H
0I
1.
#950000
1!
1A
1B
0.
1J
1Q
0F
